<?xml version="1.0" encoding="UTF-8" standalone="no"?>
<!DOCTYPE svg PUBLIC "-//W3C//DTD SVG 1.1//EN" "http://www.w3.org/Graphics/SVG/1.1/DTD/svg11.dtd">
<!-- Created with Inkscape (http://www.inkscape.org/) by Marsupilami -->
<svg xmlns:svg="http://www.w3.org/2000/svg" xmlns="http://www.w3.org/2000/svg" version="1.1" width="1024" height="553" viewBox="-1.89697347 -1.89697347 124.02894694 67.02639594" id="svg21997">
  <defs id="defs21999"/>
  <path d="M 63.63375,25.3687 62,24.8437 l 0,-1.425 7.10625,0 0,1.425 -1.8225,0.9 -5.2425,6.09875 6.125,6.11375 1.605,0.5 0,1.53125 -8.045,0 0,-1.53125 1.63375,-0.5 -5.99126,-6.44 6.26501,-6.1475 z m 45.66875,13.04375 2.0225,-0.49125 0,-12.5425 -1.7775,0 -0.87376,2.0225 -2.6775,0 0,-3.96375 14.23876,0 0,3.96375 -2.65375,0 -0.87376,-2.0225 -1.77499,0 0,12.5425 2.02124,0.49125 0,1.58625 -7.65125,0 0,-1.58625 z m -18.84251,0 1.63876,-0.49125 0,-12.4075 -1.63876,-0.51875 0,-1.5575 12.32376,0 0,3.96375 -2.7575,0 -0.93125,-2.0225 -3.39001,0 0,5.10875 2.78876,0 0.68375,-1.6675 2.3225,0 0,5.275 -2.3225,0 -0.68375,-1.63875 -2.78876,0 0,5.575 2.05001,0.38125 0,1.58625 -7.29501,0 0,-1.58625 z m -6.51874,-6.695 c 0,-4.2625 -2.55,-6.44875 -5.06375,-6.44875 -2.43125,0 -5.00875,2.18625 -5.00875,6.44875 0,4.29125 2.52124,6.45125 5.03625,6.45125 2.54125,0 5.03625,-2.13375 5.03625,-6.45125 m -13.95375,0.41 c 0,-5.6025 4.435,-9.01625 9.16249,-9.01625 4.45626,0 8.64625,3.08625 8.64625,8.17 0,5.575 -4.27375,9.045 -8.89125,9.1 -4.755,0 -8.91749,-3.11375 -8.91749,-8.25375 m -38.56751,-7.1325 0,-1.5575 6.9125,0 0,1.5575 -1.66624,0.51875 0,8.52625 c 0,2.70625 0.82125,4.045 3.27999,4.045 2.43126,0 3.14251,-1.20125 3.14251,-3.825 l 0,-8.74625 -1.64251,-0.51875 0,-1.5575 6.31376,0 0,1.5575 -1.6375,0.51875 0,8.33625 c 0,1.9675 -0.0825,3.30625 -0.93,4.345 -1.12,1.395 -2.97875,2.18625 -5.60125,2.18625 -4.92126,0 -6.53375,-1.91375 -6.53375,-6.2025 l 0,-8.665 -1.63751,-0.51875 z m -13.61625,13.4175 1.64126,-0.49125 0,-12.4075 -1.64126,-0.51875 0,-1.5575 6.8875,0 0,1.5575 -1.64,0.51875 0,12.4075 3.17001,0 0.90249,-2.15875 2.815,0 0,4.23625 -12.135,0 0,-1.58625 z" id="path21145" style="fill:#8e9bce;fill-opacity:1;fill-rule:nonzero;stroke:none"/>
  <path d="m 8.59875,23.21745 5.59125,0.003 -8.40875,8.34375 8.10625,8.43125 -5.66,0.008 L 0,31.5422 8.59875,23.21845 z m 12.87,23.92125 0,5.5625 10.1875,10.53125 10.21875,-9.96875 0,-5.65625 L 31.6875,57.7012 21.46875,47.1387 z m 10.0625,-47.125 -10.09375,10 0,5.6875 10.125,-9.90625 10.28125,10.1875 0.0312,-5.53125 L 31.5312,0.0137 z" id="path21928-0" style="fill:#296cac;fill-opacity:1;fill-rule:nonzero;stroke:none"/>
  <path d="m 31.69125,57.68745 10.18625,-10.075 0,5.66 -10.20875,9.9525 z M 31.53375,0 41.86,10.4625 41.84,15.9725 31.55501,5.78125 z m 30.5075,31.84245 -6.3975,-6.545 1.8825,-0.4925 0,-1.38625 -8.4075,0.005 8.13125,8.4025 -8.1625,8.16875 9.00249,-0.007 0,-1.55375 -2.26999,-0.50625 6.22125,-6.085 z" id="path22025-8" style="fill:#004281;fill-opacity:1;fill-rule:nonzero;stroke:none"/>
</svg>
<!-- version: 20110311, original size: 120.235 63.232449, border: 3% -->